{
  "log" : {
    "version" : "1.2",
    "creator" : {
      "name" : "BrowserMob Proxy",
      "version" : "2.1.5",
      "comment" : ""
    },
    "pages" : [ {
      "id" : "Page 0",
      "startedDateTime" : "2019-02-08T06:35:07.719Z",
      "title" : "Page 0",
      "pageTimings" : {
        "onLoad" : 2236,
        "comment" : ""
      },
      "comment" : ""
    } ],
    "entries" : [ {
      "pageref" : "Page 0",
      "startedDateTime" : "2019-02-08T06:35:09.354Z",
      "request" : {
        "method" : "GET",
        "url" : "https://reqres.in/api/users?page=2",
        "httpVersion" : "HTTP/1.1",
        "cookies" : [ ],
        "headers" : [ {
          "name" : "User-Agent",
          "value" : "Katalon Studio"
        }, {
          "name" : "Host",
          "value" : "reqres.in"
        }, {
          "name" : "Accept",
          "value" : "text/html, image/gif, image/jpeg, *; q=.2, */*; q=.2"
        }, {
          "name" : "Connection",
          "value" : "keep-alive"
        } ],
        "queryString" : [ {
          "name" : "page",
          "value" : "2"
        } ],
        "headersSize" : 167,
        "bodySize" : 0,
        "comment" : ""
      },
      "response" : {
        "status" : 200,
        "statusText" : "OK",
        "httpVersion" : "HTTP/1.1",
        "cookies" : [ {
          "name" : "__cfduid",
          "value" : "de4f2ba978f4cb532af168be39e7909ef1549607709",
          "path" : "/",
          "domain" : ".reqres.in",
          "expires" : "2020-02-08T06:35:09.000Z",
          "httpOnly" : true,
          "secure" : false,
          "comment" : ""
        } ],
        "headers" : [ {
          "name" : "Date",
          "value" : "Fri, 08 Feb 2019 06:35:09 GMT"
        }, {
          "name" : "Content-Type",
          "value" : "application/json; charset=utf-8"
        }, {
          "name" : "Content-Length",
          "value" : "443"
        }, {
          "name" : "Connection",
          "value" : "keep-alive"
        }, {
          "name" : "Set-Cookie",
          "value" : "__cfduid=de4f2ba978f4cb532af168be39e7909ef1549607709; expires=Sat, 08-Feb-20 06:35:09 GMT; path=/; domain=.reqres.in; HttpOnly"
        }, {
          "name" : "X-Powered-By",
          "value" : "Express"
        }, {
          "name" : "Access-Control-Allow-Origin",
          "value" : "*"
        }, {
          "name" : "ETag",
          "value" : "W/\"1bb-wM9a6JWbwt3JpLNfwoQwxnqaC3Y\""
        }, {
          "name" : "Expect-CT",
          "value" : "max-age=604800, report-uri=\"https://report-uri.cloudflare.com/cdn-cgi/beacon/expect-ct\""
        }, {
          "name" : "Server",
          "value" : "cloudflare"
        }, {
          "name" : "CF-RAY",
          "value" : "4a5c13183c67bb84-LHR"
        } ],
        "content" : {
          "size" : 443,
          "mimeType" : "application/json; charset=utf-8",
          "text" : "{\"page\":2,\"per_page\":3,\"total\":12,\"total_pages\":4,\"data\":[{\"id\":4,\"first_name\":\"Eve\",\"last_name\":\"Holt\",\"avatar\":\"https://s3.amazonaws.com/uifaces/faces/twitter/marcoramires/128.jpg\"},{\"id\":5,\"first_name\":\"Charles\",\"last_name\":\"Morris\",\"avatar\":\"https://s3.amazonaws.com/uifaces/faces/twitter/stephenmoon/128.jpg\"},{\"id\":6,\"first_name\":\"Tracey\",\"last_name\":\"Ramos\",\"avatar\":\"https://s3.amazonaws.com/uifaces/faces/twitter/bigmancho/128.jpg\"}]}",
          "comment" : ""
        },
        "redirectURL" : "",
        "headersSize" : 538,
        "bodySize" : 443,
        "comment" : ""
      },
      "cache" : { },
      "timings" : {
        "comment" : "",
        "ssl" : 1212,
        "receive" : 109,
        "send" : 3,
        "connect" : 1350,
        "blocked" : 0,
        "dns" : 99,
        "wait" : 482
      },
      "serverIPAddress" : "104.27.135.11",
      "comment" : "",
      "_katalonRequestInformation" : {
        "name" : "2",
        "testObjectId" : "Object Repository/Users REST service/List Users",
        "harId" : "a74dd442-b3f9-4192-873f-09371d41a746"
      },
      "time" : 2045
    } ],
    "comment" : ""
  }
}