{
  "log" : {
    "version" : "1.2",
    "creator" : {
      "name" : "BrowserMob Proxy",
      "version" : "2.1.5",
      "comment" : ""
    },
    "pages" : [ {
      "id" : "Page 0",
      "startedDateTime" : "2019-02-08T07:13:38.715Z",
      "title" : "Page 0",
      "pageTimings" : {
        "onLoad" : 2863,
        "comment" : ""
      },
      "comment" : ""
    } ],
    "entries" : [ {
      "pageref" : "Page 0",
      "startedDateTime" : "2019-02-08T07:13:41.003Z",
      "request" : {
        "method" : "GET",
        "url" : "https://reqres.in/api/users?page=2",
        "httpVersion" : "HTTP/1.1",
        "cookies" : [ ],
        "headers" : [ {
          "name" : "User-Agent",
          "value" : "Katalon Studio"
        }, {
          "name" : "Host",
          "value" : "reqres.in"
        }, {
          "name" : "Accept",
          "value" : "text/html, image/gif, image/jpeg, *; q=.2, */*; q=.2"
        }, {
          "name" : "Connection",
          "value" : "keep-alive"
        } ],
        "queryString" : [ {
          "name" : "page",
          "value" : "2"
        } ],
        "headersSize" : 167,
        "bodySize" : 0,
        "comment" : ""
      },
      "response" : {
        "status" : 200,
        "statusText" : "OK",
        "httpVersion" : "HTTP/1.1",
        "cookies" : [ {
          "name" : "__cfduid",
          "value" : "d200ae7bc205df147c685a9e4fa1d18ff1549610021",
          "path" : "/",
          "domain" : ".reqres.in",
          "expires" : "2020-02-08T07:13:41.000Z",
          "httpOnly" : true,
          "secure" : false,
          "comment" : ""
        } ],
        "headers" : [ {
          "name" : "Date",
          "value" : "Fri, 08 Feb 2019 07:13:41 GMT"
        }, {
          "name" : "Content-Type",
          "value" : "application/json; charset=utf-8"
        }, {
          "name" : "Content-Length",
          "value" : "443"
        }, {
          "name" : "Connection",
          "value" : "keep-alive"
        }, {
          "name" : "Set-Cookie",
          "value" : "__cfduid=d200ae7bc205df147c685a9e4fa1d18ff1549610021; expires=Sat, 08-Feb-20 07:13:41 GMT; path=/; domain=.reqres.in; HttpOnly"
        }, {
          "name" : "X-Powered-By",
          "value" : "Express"
        }, {
          "name" : "Access-Control-Allow-Origin",
          "value" : "*"
        }, {
          "name" : "ETag",
          "value" : "W/\"1bb-wM9a6JWbwt3JpLNfwoQwxnqaC3Y\""
        }, {
          "name" : "Expect-CT",
          "value" : "max-age=604800, report-uri=\"https://report-uri.cloudflare.com/cdn-cgi/beacon/expect-ct\""
        }, {
          "name" : "Server",
          "value" : "cloudflare"
        }, {
          "name" : "CF-RAY",
          "value" : "4a5c4b883c53bc38-LHR"
        } ],
        "content" : {
          "size" : 443,
          "mimeType" : "application/json; charset=utf-8",
          "text" : "{\"page\":2,\"per_page\":3,\"total\":12,\"total_pages\":4,\"data\":[{\"id\":4,\"first_name\":\"Eve\",\"last_name\":\"Holt\",\"avatar\":\"https://s3.amazonaws.com/uifaces/faces/twitter/marcoramires/128.jpg\"},{\"id\":5,\"first_name\":\"Charles\",\"last_name\":\"Morris\",\"avatar\":\"https://s3.amazonaws.com/uifaces/faces/twitter/stephenmoon/128.jpg\"},{\"id\":6,\"first_name\":\"Tracey\",\"last_name\":\"Ramos\",\"avatar\":\"https://s3.amazonaws.com/uifaces/faces/twitter/bigmancho/128.jpg\"}]}",
          "comment" : ""
        },
        "redirectURL" : "",
        "headersSize" : 538,
        "bodySize" : 443,
        "comment" : ""
      },
      "cache" : { },
      "timings" : {
        "comment" : "",
        "blocked" : 0,
        "dns" : 107,
        "receive" : 86,
        "wait" : 480,
        "connect" : 2024,
        "send" : 3,
        "ssl" : 1893
      },
      "serverIPAddress" : "104.27.134.11",
      "comment" : "",
      "_katalonRequestInformation" : {
        "name" : "2",
        "testObjectId" : "Object Repository/Users REST service/List Users",
        "harId" : "81c7fb06-5782-4987-85bb-60defe619821"
      },
      "time" : 2702
    } ],
    "comment" : ""
  }
}